test_run_dir/HelloTester_should_pass/Hello.vcd
$date
2025-11-19T14:11+0000
$end
$version
0.2
$end
$comment

$end
$timescale 1ns  $end
$scope module Hello $end
 $var wire 1 " io_testerDataMemWriteEnable $end
 $var wire 16 % io_testerDataMemAddress $end
 $var wire 1 ' reset $end
 $var wire 1 * dataMemory $end
 $var wire 32 8 dataReg $end
 $var wire 1 > clock $end
 $var wire 1 ? io_testerDataMemEnable $end
 $var wire 1 E io_done $end
 $var wire 2 I stateReg $end
 $var wire 32 L io_testerDataMemDataRead $end
 $var wire 32 O io_testerDataMemDataWrite $end
 $var wire 1 P io_start $end
 $var wire 16 S addressReg $end
  $scope module dataMemory $end
   $var wire 1 , io_writeEnable $end
   $var wire 32 2 io_dataWrite $end
   $var wire 16 4 io_address $end
   $var wire 1 < io_testerEnable $end
   $var wire 1 A clock $end
   $var wire 32 B io_testerDataRead $end
   $var wire 32 C io_dataRead $end
   $var wire 16 F io_testerAddress $end
   $var wire 32 G memory $end
   $var wire 32 Q io_testerDataWrite $end
   $var wire 1 R io_testerWriteEnable $end
    $scope module memory $end
     $var wire 32 # MPORT $end
     $var wire 32 1 MPORT_1 $end
      $scope module MPORT_1 $end
       $var wire 16 ! pipeline_addr_0 $end
       $var wire 1 $ pipeline_valid_0 $end
       $var wire 1 ( valid $end
       $var wire 1 5 en $end
       $var wire 32 6 pipeline_data_0 $end
       $var wire 32 : data $end
       $var wire 1 ; clk $end
       $var wire 1 H mask $end
       $var wire 16 K addr $end
      $upscope $end
      $scope module MPORT $end
       $var wire 32 & pipeline_data_0 $end
       $var wire 16 . addr $end
       $var wire 1 / mask $end
       $var wire 1 0 pipeline_valid_0 $end
       $var wire 32 9 data $end
       $var wire 16 @ pipeline_addr_0 $end
       $var wire 1 D en $end
       $var wire 1 J valid $end
       $var wire 1 N clk $end
      $upscope $end
      $scope module io_dataRead_MPORT $end
       $var wire 16 ) addr $end
       $var wire 32 + data $end
       $var wire 1 = en $end
       $var wire 1 M clk $end
      $upscope $end
      $scope module io_testerDataRead_MPORT $end
       $var wire 1 - en $end
       $var wire 1 3 clk $end
       $var wire 32 7 data $end
       $var wire 16 T addr $end
      $upscope $end
    $upscope $end
  $upscope $end
$upscope $end
$enddefinitions $end
$dumpvars
b0000000000000000 !
00
b00000000000000000000000000000000 +
03
b0000000000000000 %
05
b00000000000000000000000000000000 &
b0000000000000000 )
b00000000000000000000000000000000 #
0;
0<
0=
0>
0?
0A
b00000000000000000000000000000000 :
b0000000000000000 .
0D
b00000000000000000000000000000000 7
b0000000000000000 4
0E
b00000000000000000000000000000000 6
b00000000000000000000000000000000 9
b00000000000000000000000000000000 8
b00000000000000000000000000000000 2
0J
0M
1/
0N
b00000000000000000000000000000000 1
0P
0R
1H
b0000000000000000 @
b00000000000000000000000000000000 L
b00000000000000000000000000000000 G
b00000000000000000000000000000000 C
b00000000000000000000000000000000 B
b0000000000000000 F
b0000000000000000 K
b00 I
0"
0$
b0000000000000000 T
b0000000000000000 S
0'
0(
0*
0,
b00000000000000000000000000000000 O
0-
b00000000000000000000000000000000 Q
$end
#0
1'
1=
#1
1A
13
1;
1M
1>
1N
#6
0A
1"
1D
0'
1J
1-
0M
0N
1R
03
0;
1<
0=
0>
1?
#11
10
1A
13
1;
1M
1>
1N
#16
0A
03
b0000000000000001 T
b0000000000000001 %
b0000000000000001 F
0;
0M
b0000000000000001 .
0>
0N
#21
b0000000000000001 @
1A
13
1;
1M
1>
1N
#26
0A
03
b0000000000000010 T
b0000000000000010 %
b0000000000000010 F
0;
0M
b0000000000000010 .
0>
0N
#31
b0000000000000010 @
1A
13
1;
1M
1>
1N
#36
0A
03
b0000000000000011 T
b0000000000000011 %
b0000000000000011 F
0;
0M
b0000000000000011 .
0>
0N
#41
b0000000000000011 @
1A
13
1;
1M
1>
1N
#46
0A
03
b0000000000000100 T
b0000000000000100 %
b0000000000000100 F
0;
0M
b0000000000000100 .
0>
0N
#51
b0000000000000100 @
1A
13
1;
1M
1>
1N
#56
0A
03
b0000000000000101 T
b0000000000000101 %
b0000000000000101 F
0;
0M
b0000000000000101 .
0>
0N
#61
b0000000000000101 @
1A
13
1;
1M
1>
1N
#66
0A
03
b0000000000000110 T
b0000000000000110 %
b0000000000000110 F
0;
0M
b0000000000000110 .
0>
0N
#71
b0000000000000110 @
1A
13
1;
1M
1>
1N
#76
0A
03
b0000000000000111 T
b0000000000000111 %
b0000000000000111 F
0;
0M
b0000000000000111 .
0>
0N
#81
b0000000000000111 @
1A
13
1;
1M
1>
1N
#86
0A
03
b0000000000001000 T
b0000000000001000 %
b0000000000001000 F
0;
0M
b0000000000001000 .
0>
0N
#91
b0000000000001000 @
1A
13
1;
1M
1>
1N
#96
0A
03
b0000000000001001 T
b0000000000001001 %
b0000000000001001 F
0;
0M
b0000000000001001 .
0>
0N
#101
b0000000000001001 @
1A
13
1;
1M
1>
1N
#106
0A
03
b0000000000001010 T
b0000000000001010 %
b0000000000001010 F
0;
0M
b0000000000001010 .
0>
0N
#111
b0000000000001010 @
1A
13
1;
1M
1>
1N
#116
0A
03
b0000000000001011 T
b0000000000001011 %
b0000000000001011 F
0;
0M
b0000000000001011 .
0>
0N
#121
b0000000000001011 @
1A
13
1;
1M
1>
1N
#126
0A
03
b0000000000001100 T
b0000000000001100 %
b0000000000001100 F
0;
0M
b0000000000001100 .
0>
0N
#131
b0000000000001100 @
1A
13
1;
1M
1>
1N
#136
0A
03
b0000000000001101 T
b0000000000001101 %
b0000000000001101 F
0;
0M
b0000000000001101 .
0>
0N
#141
b0000000000001101 @
1A
13
1;
1M
1>
1N
#146
0A
03
b0000000000001110 T
b0000000000001110 %
b0000000000001110 F
0;
0M
b0000000000001110 .
0>
0N
#151
b0000000000001110 @
1A
13
1;
1M
1>
1N
#156
0A
03
b0000000000001111 T
b0000000000001111 %
b0000000000001111 F
0;
0M
b0000000000001111 .
0>
0N
#161
b0000000000001111 @
1A
13
1;
1M
1>
1N
#166
0A
03
b0000000000010000 T
b0000000000010000 %
b0000000000010000 F
0;
0M
b0000000000010000 .
0>
0N
#171
b0000000000010000 @
1A
13
1;
1M
1>
1N
#176
0A
03
b0000000000010001 T
b0000000000010001 %
b0000000000010001 F
0;
0M
b0000000000010001 .
0>
0N
#181
b0000000000010001 @
1A
13
1;
1M
1>
1N
#186
0A
03
b0000000000010010 T
b0000000000010010 %
b0000000000010010 F
0;
0M
b0000000000010010 .
0>
0N
#191
b0000000000010010 @
1A
13
1;
1M
1>
1N
#196
0A
03
b0000000000010011 T
b0000000000010011 %
b0000000000010011 F
0;
0M
b0000000000010011 .
0>
0N
#201
b0000000000010011 @
1A
13
1;
1M
1>
1N
#206
0A
03
b0000000000010100 T
b0000000000010100 %
b0000000000010100 F
0;
0M
b0000000000010100 .
0>
0N
#211
b0000000000010100 @
1A
13
1;
1M
1>
1N
#216
0A
03
b0000000000010101 T
b0000000000010101 %
b0000000000010101 F
0;
0M
b0000000000010101 .
0>
0N
#221
b0000000000010101 @
1A
13
1;
1M
1>
1N
#226
0A
03
b0000000000010110 T
b0000000000010110 %
b0000000000010110 F
0;
0M
b0000000000010110 .
0>
0N
#231
b0000000000010110 @
1A
13
1;
1M
1>
1N
#236
0A
03
b0000000000010111 T
b0000000000010111 %
b0000000000010111 F
0;
0M
b0000000000010111 .
0>
0N
#241
b0000000000010111 @
1A
13
1;
1M
1>
1N
#246
0A
03
b0000000000011000 T
b0000000000011000 %
b0000000000011000 F
0;
0M
b0000000000011000 .
0>
0N
#251
b0000000000011000 @
1A
13
1;
1M
1>
1N
#256
0A
03
b0000000000011001 T
b0000000000011001 %
b0000000000011001 F
0;
0M
b0000000000011001 .
0>
0N
#261
b0000000000011001 @
1A
13
1;
1M
1>
1N
#266
0A
03
b0000000000011010 T
b0000000000011010 %
b0000000000011010 F
0;
0M
b0000000000011010 .
0>
0N
#271
b0000000000011010 @
1A
13
1;
1M
1>
1N
#276
0A
03
b0000000000011011 T
b0000000000011011 %
b0000000000011011 F
0;
0M
b0000000000011011 .
0>
0N
#281
b0000000000011011 @
1A
13
1;
1M
1>
1N
#286
0A
03
b0000000000011100 T
b0000000000011100 %
b0000000000011100 F
0;
0M
b0000000000011100 .
0>
0N
#291
b0000000000011100 @
1A
13
1;
1M
1>
1N
#296
0A
03
b0000000000011101 T
b0000000000011101 %
b0000000000011101 F
0;
0M
b0000000000011101 .
0>
0N
#301
b0000000000011101 @
1A
13
1;
1M
1>
1N
#306
0A
03
b0000000000011110 T
b0000000000011110 %
b0000000000011110 F
0;
0M
b0000000000011110 .
0>
0N
#311
b0000000000011110 @
1A
13
1;
1M
1>
1N
#316
0A
03
b0000000000011111 T
b0000000000011111 %
b0000000000011111 F
0;
0M
b0000000000011111 .
0>
0N
#321
b0000000000011111 @
1A
13
1;
1M
1>
1N
#326
0A
03
b0000000000100000 T
b0000000000100000 %
b0000000000100000 F
0;
0M
b0000000000100000 .
0>
0N
#331
b0000000000100000 @
1A
13
1;
1M
1>
1N
#336
0A
03
b0000000000100001 T
b0000000000100001 %
b0000000000100001 F
0;
0M
b0000000000100001 .
0>
0N
#341
b0000000000100001 @
1A
13
1;
1M
1>
1N
#346
0A
03
b0000000000100010 T
b0000000000100010 %
b0000000000100010 F
0;
0M
b0000000000100010 .
0>
0N
#351
b0000000000100010 @
1A
13
1;
1M
1>
1N
#356
0A
03
b0000000000100011 T
b0000000000100011 %
b0000000000100011 F
0;
0M
b0000000000100011 .
0>
0N
#361
b0000000000100011 @
1A
13
1;
1M
1>
1N
#366
0A
03
b0000000000100100 T
b0000000000100100 %
b0000000000100100 F
0;
0M
b0000000000100100 .
0>
0N
#371
b0000000000100100 @
1A
13
1;
1M
1>
1N
#376
0A
03
b0000000000100101 T
b0000000000100101 %
b0000000000100101 F
0;
0M
b0000000000100101 .
0>
0N
#381
b0000000000100101 @
1A
13
1;
1M
1>
1N
#386
0A
03
b0000000000100110 T
b0000000000100110 %
b0000000000100110 F
0;
0M
b0000000000100110 .
0>
0N
#391
b0000000000100110 @
1A
13
1;
1M
1>
1N
#396
0A
03
b0000000000100111 T
b0000000000100111 %
b0000000000100111 F
0;
0M
b0000000000100111 .
0>
0N
#401
b0000000000100111 @
1A
13
1;
1M
1>
1N
#406
0A
03
b0000000000101000 T
b0000000000101000 %
b0000000000101000 F
0;
0M
b0000000000101000 .
0>
0N
#411
b0000000000101000 @
1A
13
1;
1M
1>
1N
#416
0A
03
b0000000000101001 T
b0000000000101001 %
b0000000000101001 F
0;
0M
b0000000000101001 .
0>
0N
#421
b0000000000101001 @
1A
13
1;
1M
1>
1N
#426
0A
03
b0000000000101010 T
b0000000000101010 %
b0000000000101010 F
0;
0M
b0000000000101010 .
0>
0N
#431
b0000000000101010 @
1A
13
1;
1M
1>
1N
#436
0A
03
b0000000000101011 T
b0000000000101011 %
b0000000000101011 F
0;
0M
b0000000000101011 .
0>
0N
#441
b0000000000101011 @
1A
13
1;
1M
1>
1N
#446
0A
03
b0000000000101100 T
b0000000000101100 %
b0000000000101100 F
0;
0M
b0000000000101100 .
0>
0N
#451
b0000000000101100 @
1A
13
1;
1M
1>
1N
#456
0A
03
b0000000000101101 T
b0000000000101101 %
b0000000000101101 F
0;
0M
b0000000000101101 .
0>
0N
#461
b0000000000101101 @
1A
13
1;
1M
1>
1N
#466
0A
03
b0000000000101110 T
b0000000000101110 %
b0000000000101110 F
0;
0M
b0000000000101110 .
0>
0N
#471
b0000000000101110 @
1A
13
1;
1M
1>
1N
#476
0A
03
b0000000000101111 T
b0000000000101111 %
b0000000000101111 F
0;
0M
b0000000000101111 .
0>
0N
#481
b0000000000101111 @
1A
13
1;
1M
1>
1N
#486
0A
03
b0000000000110000 T
b0000000000110000 %
b0000000000110000 F
0;
0M
b0000000000110000 .
0>
0N
#491
b0000000000110000 @
1A
13
1;
1M
1>
1N
#496
0A
03
b0000000000110001 T
b0000000000110001 %
b0000000000110001 F
0;
0M
b0000000000110001 .
0>
0N
#501
b0000000000110001 @
1A
13
1;
1M
1>
1N
#506
0A
03
b0000000000110010 T
b0000000000110010 %
b0000000000110010 F
0;
0M
b0000000000110010 .
0>
0N
#511
b0000000000110010 @
1A
13
1;
1M
1>
1N
#516
0A
03
b0000000000110011 T
b0000000000110011 %
b0000000000110011 F
0;
0M
b0000000000110011 .
0>
0N
#521
b0000000000110011 @
1A
13
1;
1M
1>
1N
#526
0A
03
b0000000000110100 T
b0000000000110100 %
b0000000000110100 F
0;
0M
b0000000000110100 .
0>
0N
#531
b0000000000110100 @
1A
13
1;
1M
1>
1N
#536
0A
03
b0000000000110101 T
b0000000000110101 %
b0000000000110101 F
0;
0M
b0000000000110101 .
0>
0N
#541
b0000000000110101 @
1A
13
1;
1M
1>
1N
#546
0A
03
b0000000000110110 T
b0000000000110110 %
b0000000000110110 F
0;
0M
b0000000000110110 .
0>
0N
#551
b0000000000110110 @
1A
13
1;
1M
1>
1N
#556
0A
03
b0000000000110111 T
b0000000000110111 %
b0000000000110111 F
0;
0M
b0000000000110111 .
0>
0N
#561
b0000000000110111 @
1A
13
1;
1M
1>
1N
#566
0A
03
b0000000000111000 T
b0000000000111000 %
b0000000000111000 F
0;
0M
b0000000000111000 .
0>
0N
#571
b0000000000111000 @
1A
13
1;
1M
1>
1N
#576
0A
03
b0000000000111001 T
b0000000000111001 %
b0000000000111001 F
0;
0M
b0000000000111001 .
0>
0N
#581
b0000000000111001 @
1A
13
1;
1M
1>
1N
#586
0A
03
b0000000000111010 T
b0000000000111010 %
b0000000000111010 F
0;
0M
b0000000000111010 .
0>
0N
#591
b0000000000111010 @
1A
13
1;
1M
1>
1N
#596
0A
03
b0000000000111011 T
b0000000000111011 %
b0000000000111011 F
0;
0M
b0000000000111011 .
0>
0N
#601
b0000000000111011 @
1A
13
1;
1M
1>
1N
#606
0A
03
b0000000000111100 T
b0000000000111100 %
b0000000000111100 F
0;
0M
b0000000000111100 .
0>
0N
#611
b0000000000111100 @
1A
13
1;
1M
1>
1N
#616
0A
03
b0000000000111101 T
b0000000000111101 %
b0000000000111101 F
0;
0M
b0000000000111101 .
0>
0N
#621
b0000000000111101 @
1A
13
1;
1M
1>
1N
#626
0A
03
b0000000000111110 T
b0000000000111110 %
b0000000000111110 F
0;
0M
b0000000000111110 .
0>
0N
#631
b0000000000111110 @
1A
13
1;
1M
1>
1N
#636
0A
03
b0000000000111111 T
b0000000000111111 %
b0000000000111111 F
0;
0M
b0000000000111111 .
0>
0N
#641
b0000000000111111 @
1A
13
1;
1M
1>
1N
#646
0A
03
b0000000001000000 T
b0000000001000000 %
b0000000001000000 F
0;
0M
b0000000001000000 .
0>
0N
#651
b0000000001000000 @
1A
13
1;
1M
1>
1N
#656
0A
03
b0000000001000001 T
b0000000001000001 %
b0000000001000001 F
0;
0M
b0000000001000001 .
0>
0N
#661
b0000000001000001 @
1A
13
1;
1M
1>
1N
#666
0A
03
b0000000001000010 T
b0000000001000010 %
b0000000001000010 F
0;
0M
b0000000001000010 .
0>
0N
#671
b0000000001000010 @
1A
13
1;
1M
1>
1N
#676
0A
03
b0000000001000011 T
b0000000001000011 %
b0000000001000011 F
0;
0M
b0000000001000011 .
0>
0N
#681
b0000000001000011 @
1A
13
1;
1M
1>
1N
#686
0A
03
b0000000001000100 T
b0000000001000100 %
b0000000001000100 F
0;
0M
b0000000001000100 .
0>
0N
#691
b0000000001000100 @
1A
13
1;
1M
1>
1N
#696
0A
03
b0000000001000101 T
b0000000001000101 %
b0000000001000101 F
0;
0M
b0000000001000101 .
0>
0N
#701
b0000000001000101 @
1A
13
1;
1M
1>
1N
#706
0A
03
b0000000001000110 T
b0000000001000110 %
b0000000001000110 F
0;
0M
b0000000001000110 .
0>
0N
#711
b0000000001000110 @
1A
13
1;
1M
1>
1N
#716
0A
03
b0000000001000111 T
b0000000001000111 %
b0000000001000111 F
0;
0M
b0000000001000111 .
0>
0N
#721
b0000000001000111 @
1A
13
1;
1M
1>
1N
#726
0A
03
b0000000001001000 T
b0000000001001000 %
b0000000001001000 F
0;
0M
b0000000001001000 .
0>
0N
#731
b0000000001001000 @
1A
13
1;
1M
1>
1N
#736
0A
03
b0000000001001001 T
b0000000001001001 %
b0000000001001001 F
0;
0M
b0000000001001001 .
0>
0N
#741
b0000000001001001 @
1A
13
1;
1M
1>
1N
#746
0A
03
b0000000001001010 T
b0000000001001010 %
b0000000001001010 F
0;
0M
b0000000001001010 .
0>
0N
#751
b0000000001001010 @
1A
13
1;
1M
1>
1N
#756
0A
03
b0000000001001011 T
b0000000001001011 %
b0000000001001011 F
0;
0M
b0000000001001011 .
0>
0N
#761
b0000000001001011 @
1A
13
1;
1M
1>
1N
#766
0A
03
b0000000001001100 T
b0000000001001100 %
b0000000001001100 F
0;
0M
b0000000001001100 .
0>
0N
#771
b0000000001001100 @
1A
13
1;
1M
1>
1N
#776
0A
03
b0000000001001101 T
b0000000001001101 %
b0000000001001101 F
0;
0M
b0000000001001101 .
0>
0N
#781
b0000000001001101 @
1A
13
1;
1M
1>
1N
#786
0A
03
b0000000001001110 T
b0000000001001110 %
b0000000001001110 F
0;
0M
b0000000001001110 .
0>
0N
#791
b0000000001001110 @
1A
13
1;
1M
1>
1N
#796
0A
03
b0000000001001111 T
b0000000001001111 %
b0000000001001111 F
0;
0M
b0000000001001111 .
0>
0N
#801
b0000000001001111 @
1A
13
1;
1M
1>
1N
#806
0A
03
b0000000001010000 T
b0000000001010000 %
b0000000001010000 F
0;
0M
b0000000001010000 .
0>
0N
#811
b0000000001010000 @
1A
13
1;
1M
1>
1N
#816
0A
03
b0000000001010001 T
b0000000001010001 %
b0000000001010001 F
0;
0M
b0000000001010001 .
0>
0N
#821
b0000000001010001 @
1A
13
1;
1M
1>
1N
#826
0A
03
b0000000001010010 T
b0000000001010010 %
b0000000001010010 F
0;
0M
b0000000001010010 .
0>
0N
#831
b0000000001010010 @
1A
13
1;
1M
1>
1N
#836
0A
03
b0000000001010011 T
b0000000001010011 %
b0000000001010011 F
0;
0M
b0000000001010011 .
0>
0N
#841
b0000000001010011 @
1A
13
1;
1M
1>
1N
#846
0A
03
b0000000001010100 T
b0000000001010100 %
b0000000001010100 F
0;
0M
b0000000001010100 .
0>
0N
#851
b0000000001010100 @
1A
13
1;
1M
1>
1N
#856
0A
03
b0000000001010101 T
b0000000001010101 %
b0000000001010101 F
0;
0M
b0000000001010101 .
0>
0N
#861
b0000000001010101 @
1A
13
1;
1M
1>
1N
#866
0A
03
b0000000001010110 T
b0000000001010110 %
b0000000001010110 F
0;
0M
b0000000001010110 .
0>
0N
#871
b0000000001010110 @
1A
13
1;
1M
1>
1N
#876
0A
03
b0000000001010111 T
b0000000001010111 %
b0000000001010111 F
0;
0M
b0000000001010111 .
0>
0N
#881
b0000000001010111 @
1A
13
1;
1M
1>
1N
#886
0A
03
b0000000001011000 T
b0000000001011000 %
b0000000001011000 F
0;
0M
b0000000001011000 .
0>
0N
#891
b0000000001011000 @
1A
13
1;
1M
1>
1N
#896
0A
03
b0000000001011001 T
b0000000001011001 %
b0000000001011001 F
0;
0M
b0000000001011001 .
0>
0N
#901
b0000000001011001 @
1A
13
1;
1M
1>
1N
#906
0A
03
b0000000001011010 T
b0000000001011010 %
b0000000001011010 F
0;
0M
b0000000001011010 .
0>
0N
#911
b0000000001011010 @
1A
13
1;
1M
1>
1N
#916
0A
03
b0000000001011011 T
b0000000001011011 %
b0000000001011011 F
0;
0M
b0000000001011011 .
0>
0N
#921
b0000000001011011 @
1A
13
1;
1M
1>
1N
#926
0A
03
b0000000001011100 T
b0000000001011100 %
b0000000001011100 F
0;
0M
b0000000001011100 .
0>
0N
#931
b0000000001011100 @
1A
13
1;
1M
1>
1N
#936
0A
03
b0000000001011101 T
b0000000001011101 %
b0000000001011101 F
0;
0M
b0000000001011101 .
0>
0N
#941
b0000000001011101 @
1A
13
1;
1M
1>
1N
#946
0A
03
b0000000001011110 T
b0000000001011110 %
b0000000001011110 F
0;
0M
b0000000001011110 .
0>
0N
#951
b0000000001011110 @
1A
13
1;
1M
1>
1N
#956
0A
b00000000000000000000000011111111 B
b0000000001011111 %
b0000000001011111 F
b00000000000000000000000011111111 L
0M
b0000000001011111 .
0N
b00000000000000000000000011111111 O
b00000000000000000000000011111111 Q
03
b0000000001011111 T
b00000000000000000000000011111111 9
0;
0>
#961
b0000000001011111 @
1A
13
b00000000000000000000000011111111 &
b00000000000000000000000011111111 7
1;
1M
1>
1N
#966
0A
b00000000000000000000000000000000 B
b0000000001100000 %
b0000000001100000 F
b00000000000000000000000000000000 L
0M
b0000000001100000 .
0N
b00000000000000000000000000000000 O
b00000000000000000000000000000000 Q
03
b0000000001100000 T
b00000000000000000000000000000000 7
b00000000000000000000000000000000 9
0;
0>
#971
b0000000001100000 @
1A
13
b00000000000000000000000000000000 &
1;
1M
1>
1N
#976
0A
03
b0000000001100001 T
b0000000001100001 %
b0000000001100001 F
0;
0M
b0000000001100001 .
0>
0N
#981
b0000000001100001 @
1A
13
1;
1M
1>
1N
#986
0A
03
b0000000001100010 T
b0000000001100010 %
b0000000001100010 F
0;
0M
b0000000001100010 .
0>
0N
#991
b0000000001100010 @
1A
13
1;
1M
1>
1N
#996
0A
03
b0000000001100011 T
b0000000001100011 %
b0000000001100011 F
0;
0M
b0000000001100011 .
0>
0N
#1001
b0000000001100011 @
1A
13
1;
1M
1>
1N
#1006
0A
03
b0000000001100100 T
b0000000001100100 %
b0000000001100100 F
0;
0M
b0000000001100100 .
0>
0N
#1011
b0000000001100100 @
1A
13
1;
1M
1>
1N
#1016
0A
03
b0000000001100101 T
b0000000001100101 %
b0000000001100101 F
0;
0M
b0000000001100101 .
0>
0N
#1021
b0000000001100101 @
1A
13
1;
1M
1>
1N
#1026
0A
03
b0000000001100110 T
b0000000001100110 %
b0000000001100110 F
0;
0M
b0000000001100110 .
0>
0N
#1031
b0000000001100110 @
1A
13
1;
1M
1>
1N
#1036
0A
03
b0000000001100111 T
b0000000001100111 %
b0000000001100111 F
0;
0M
b0000000001100111 .
0>
0N
#1041
b0000000001100111 @
1A
13
1;
1M
1>
1N
#1046
0A
b00000000000000000000000011111111 B
b0000000001101000 %
b0000000001101000 F
b00000000000000000000000011111111 L
0M
b0000000001101000 .
0N
b00000000000000000000000011111111 O
b00000000000000000000000011111111 Q
03
b0000000001101000 T
b00000000000000000000000011111111 9
0;
0>
#1051
b0000000001101000 @
1A
13
b00000000000000000000000011111111 &
b00000000000000000000000011111111 7
1;
1M
1>
1N
#1056
0A
b00000000000000000000000000000000 B
b0000000001101001 %
b0000000001101001 F
b00000000000000000000000000000000 L
0M
b0000000001101001 .
0N
b00000000000000000000000000000000 O
b00000000000000000000000000000000 Q
03
b0000000001101001 T
b00000000000000000000000000000000 7
b00000000000000000000000000000000 9
0;
0>
#1061
b0000000001101001 @
1A
13
b00000000000000000000000000000000 &
1;
1M
1>
1N
#1066
0A
03
b0000000001101010 T
b0000000001101010 %
b0000000001101010 F
0;
0M
b0000000001101010 .
0>
0N
#1071
b0000000001101010 @
1A
13
1;
1M
1>
1N
#1076
0A
03
b0000000001101011 T
b0000000001101011 %
b0000000001101011 F
0;
0M
b0000000001101011 .
0>
0N
#1081
b0000000001101011 @
1A
13
1;
1M
1>
1N
#1086
0A
03
b0000000001101100 T
b0000000001101100 %
b0000000001101100 F
0;
0M
b0000000001101100 .
0>
0N
#1091
b0000000001101100 @
1A
13
1;
1M
1>
1N
#1096
0A
03
b0000000001101101 T
b0000000001101101 %
b0000000001101101 F
0;
0M
b0000000001101101 .
0>
0N
#1101
b0000000001101101 @
1A
13
1;
1M
1>
1N
#1106
0A
03
b0000000001101110 T
b0000000001101110 %
b0000000001101110 F
0;
0M
b0000000001101110 .
0>
0N
#1111
b0000000001101110 @
1A
13
1;
1M
1>
1N
#1116
0A
03
b0000000001101111 T
b0000000001101111 %
b0000000001101111 F
0;
0M
b0000000001101111 .
0>
0N
#1121
b0000000001101111 @
1A
13
1;
1M
1>
1N
#1126
0A
03
b0000000001110000 T
b0000000001110000 %
b0000000001110000 F
0;
0M
b0000000001110000 .
0>
0N
#1131
b0000000001110000 @
1A
13
1;
1M
1>
1N
#1136
0A
03
b0000000001110001 T
b0000000001110001 %
b0000000001110001 F
0;
0M
b0000000001110001 .
0>
0N
#1141
b0000000001110001 @
1A
13
1;
1M
1>
1N
#1146
0A
b00000000000000000000000011111111 B
b0000000001110010 %
b0000000001110010 F
b00000000000000000000000011111111 L
0M
b0000000001110010 .
0N
b00000000000000000000000011111111 O
b00000000000000000000000011111111 Q
03
b0000000001110010 T
b00000000000000000000000011111111 9
0;
0>
#1151
b0000000001110010 @
1A
13
b00000000000000000000000011111111 &
b00000000000000000000000011111111 7
1;
1M
1>
1N
#1156
0A
03
b0000000001110011 T
b0000000001110011 %
b0000000001110011 F
b00000000000000000000000000000000 7
0;
0M
b0000000001110011 .
0>
0N
#1161
b0000000001110011 @
1A
13
b00000000000000000000000011111111 7
1;
1M
1>
1N
#1166
0A
03
b0000000001110100 T
b0000000001110100 %
b0000000001110100 F
b00000000000000000000000000000000 7
0;
0M
b0000000001110100 .
0>
0N
#1171
b0000000001110100 @
1A
13
b00000000000000000000000011111111 7
1;
1M
1>
1N
#1176
0A
b00000000000000000000000000000000 B
b0000000001110101 %
b0000000001110101 F
b00000000000000000000000000000000 L
0M
b0000000001110101 .
0N
b00000000000000000000000000000000 O
b00000000000000000000000000000000 Q
03
b0000000001110101 T
b00000000000000000000000000000000 7
b00000000000000000000000000000000 9
0;
0>
#1181
b0000000001110101 @
1A
13
b00000000000000000000000000000000 &
1;
1M
1>
1N
#1186
0A
03
b0000000001110110 T
b0000000001110110 %
b0000000001110110 F
0;
0M
b0000000001110110 .
0>
0N
#1191
b0000000001110110 @
1A
13
1;
1M
1>
1N
#1196
0A
03
b0000000001110111 T
b0000000001110111 %
b0000000001110111 F
0;
0M
b0000000001110111 .
0>
0N
#1201
b0000000001110111 @
1A
13
1;
1M
1>
1N
#1206
0A
03
b0000000001111000 T
b0000000001111000 %
b0000000001111000 F
0;
0M
b0000000001111000 .
0>
0N
#1211
b0000000001111000 @
1A
13
1;
1M
1>
1N
#1216
0A
03
b0000000001111001 T
b0000000001111001 %
b0000000001111001 F
0;
0M
b0000000001111001 .
0>
0N
#1221
b0000000001111001 @
1A
13
1;
1M
1>
1N
#1226
0A
03
b0000000001111010 T
b0000000001111010 %
b0000000001111010 F
0;
0M
b0000000001111010 .
0>
0N
#1231
b0000000001111010 @
1A
13
1;
1M
1>
1N
#1236
0A
b00000000000000000000000011111111 B
b0000000001111011 %
b0000000001111011 F
b00000000000000000000000011111111 L
0M
b0000000001111011 .
0N
b00000000000000000000000011111111 O
b00000000000000000000000011111111 Q
03
b0000000001111011 T
b00000000000000000000000011111111 9
0;
0>
#1241
b0000000001111011 @
1A
13
b00000000000000000000000011111111 &
b00000000000000000000000011111111 7
1;
1M
1>
1N
#1246
0A
03
b0000000001111100 T
b0000000001111100 %
b0000000001111100 F
b00000000000000000000000000000000 7
0;
0M
b0000000001111100 .
0>
0N
#1251
b0000000001111100 @
1A
13
b00000000000000000000000011111111 7
1;
1M
1>
1N
#1256
0A
03
b0000000001111101 T
b0000000001111101 %
b0000000001111101 F
b00000000000000000000000000000000 7
0;
0M
b0000000001111101 .
0>
0N
#1261
b0000000001111101 @
1A
13
b00000000000000000000000011111111 7
1;
1M
1>
1N
#1266
0A
b00000000000000000000000000000000 B
b0000000001111110 %
b0000000001111110 F
b00000000000000000000000000000000 L
0M
b0000000001111110 .
0N
b00000000000000000000000000000000 O
b00000000000000000000000000000000 Q
03
b0000000001111110 T
b00000000000000000000000000000000 7
b00000000000000000000000000000000 9
0;
0>
#1271
b0000000001111110 @
1A
13
b00000000000000000000000000000000 &
1;
1M
1>
1N
#1276
0A
03
b0000000001111111 T
b0000000001111111 %
b0000000001111111 F
0;
0M
b0000000001111111 .
0>
0N
#1281
b0000000001111111 @
1A
13
1;
1M
1>
1N
#1286
0A
03
b0000000010000000 T
b0000000010000000 %
b0000000010000000 F
0;
0M
b0000000010000000 .
0>
0N
#1291
b0000000010000000 @
1A
13
1;
1M
1>
1N
#1296
0A
03
b0000000010000001 T
b0000000010000001 %
b0000000010000001 F
0;
0M
b0000000010000001 .
0>
0N
#1301
b0000000010000001 @
1A
13
1;
1M
1>
1N
#1306
0A
03
b0000000010000010 T
b0000000010000010 %
b0000000010000010 F
0;
0M
b0000000010000010 .
0>
0N
#1311
b0000000010000010 @
1A
13
1;
1M
1>
1N
#1316
0A
03
b0000000010000011 T
b0000000010000011 %
b0000000010000011 F
0;
0M
b0000000010000011 .
0>
0N
#1321
b0000000010000011 @
1A
13
1;
1M
1>
1N
#1326
0A
03
b0000000010000100 T
b0000000010000100 %
b0000000010000100 F
0;
0M
b0000000010000100 .
0>
0N
#1331
b0000000010000100 @
1A
13
1;
1M
1>
1N
#1336
0A
b00000000000000000000000011111111 B
b0000000010000101 %
b0000000010000101 F
b00000000000000000000000011111111 L
0M
b0000000010000101 .
0N
b00000000000000000000000011111111 O
b00000000000000000000000011111111 Q
03
b0000000010000101 T
b00000000000000000000000011111111 9
0;
0>
#1341
b0000000010000101 @
1A
13
b00000000000000000000000011111111 &
b00000000000000000000000011111111 7
1;
1M
1>
1N
#1346
0A
03
b0000000010000110 T
b0000000010000110 %
b0000000010000110 F
b00000000000000000000000000000000 7
0;
0M
b0000000010000110 .
0>
0N
#1351
b0000000010000110 @
1A
13
b00000000000000000000000011111111 7
1;
1M
1>
1N
#1356
0A
03
b0000000010000111 T
b0000000010000111 %
b0000000010000111 F
b00000000000000000000000000000000 7
0;
0M
b0000000010000111 .
0>
0N
